%YAML 1.1
%TAG !u! tag:unity3d.com,2011:
--- !u!1 &3595088490802230178
GameObject:
  m_ObjectHideFlags: 0
  m_CorrespondingSourceObject: {fileID: 0}
  m_PrefabInstance: {fileID: 0}
  m_PrefabAsset: {fileID: 0}
  serializedVersion: 6
  m_Component:
  - component: {fileID: 1523815189940567793}
  - component: {fileID: 7509808794165201993}
  - component: {fileID: 8872402294624146562}
  - component: {fileID: 3090944802997669114}
  m_Layer: 0
  m_Name: Fanfare
  m_TagString: Untagged
  m_Icon: {fileID: 0}
  m_NavMeshLayer: 0
  m_StaticEditorFlags: 0
  m_IsActive: 0
--- !u!4 &1523815189940567793
Transform:
  m_ObjectHideFlags: 0
  m_CorrespondingSourceObject: {fileID: 0}
  m_PrefabInstance: {fileID: 0}
  m_PrefabAsset: {fileID: 0}
  m_GameObject: {fileID: 3595088490802230178}
  m_LocalRotation: {x: 0, y: 0, z: 0, w: 1}
  m_LocalPosition: {x: 0, y: 0, z: 0}
  m_LocalScale: {x: 1, y: 1, z: 1}
  m_Children: []
  m_Father: {fileID: 0}
  m_RootOrder: 0
  m_LocalEulerAnglesHint: {x: 0, y: 0, z: 0}
--- !u!114 &7509808794165201993
MonoBehaviour:
  m_ObjectHideFlags: 0
  m_CorrespondingSourceObject: {fileID: 0}
  m_PrefabInstance: {fileID: 0}
  m_PrefabAsset: {fileID: 0}
  m_GameObject: {fileID: 3595088490802230178}
  m_Enabled: 1
  m_EditorHideFlags: 0
  m_Script: {fileID: 11500000, guid: 346e8f10541ff4cf8ac622cbfd5b784e, type: 3}
  m_Name: 
  m_EditorClassIdentifier: 
  backingTrack: event:/SONGS/FANFARE/FANFARE
  instrument1: event:/SONGS/FANFARE/1_SYNTH BASS
  instrument2: event:/SONGS/FANFARE/2_SYNTH LEAD
  instrument3: event:/SONGS/FANFARE/3_TRUMPET
  instrument4: event:/SONGS/FANFARE/4_TRIANGLE
--- !u!114 &8872402294624146562
MonoBehaviour:
  m_ObjectHideFlags: 0
  m_CorrespondingSourceObject: {fileID: 0}
  m_PrefabInstance: {fileID: 0}
  m_PrefabAsset: {fileID: 0}
  m_GameObject: {fileID: 3595088490802230178}
  m_Enabled: 1
  m_EditorHideFlags: 0
  m_Script: {fileID: 11500000, guid: 6b8cfd5aaa1814bca90fe822d5c388ed, type: 3}
  m_Name: 
  m_EditorClassIdentifier: 
  ScoreKeeper: {fileID: 0}
  DudNoteDuration: 0.3
  fmodPlayer: {fileID: 7509808794165201993}
  TrackNumber: 3
  RecordPlayHeadToleranceMs: 500
--- !u!114 &3090944802997669114
MonoBehaviour:
  m_ObjectHideFlags: 0
  m_CorrespondingSourceObject: {fileID: 0}
  m_PrefabInstance: {fileID: 0}
  m_PrefabAsset: {fileID: 0}
  m_GameObject: {fileID: 3595088490802230178}
  m_Enabled: 1
  m_EditorHideFlags: 0
  m_Script: {fileID: 11500000, guid: 1f6b5a380ba664964ac5d4595b1fad08, type: 3}
  m_Name: 
  m_EditorClassIdentifier: 
