%YAML 1.1
%TAG !u! tag:unity3d.com,2011:
--- !u!114 &11400000
MonoBehaviour:
  m_ObjectHideFlags: 0
  m_CorrespondingSourceObject: {fileID: 0}
  m_PrefabInstance: {fileID: 0}
  m_PrefabAsset: {fileID: 0}
  m_GameObject: {fileID: 0}
  m_Enabled: 1
  m_EditorHideFlags: 0
  m_Script: {fileID: 11500000, guid: b6201e27c6fc248e99f0708e5a371a33, type: 3}
  m_Name: Moon Warp
  m_EditorClassIdentifier: 
  SongName: Moon Warp
  SongEventName: event:/SONGS/MOON/Moon_Warp
  InstrumentScores:
  - SongTitle: Moon Warp
    InstrumentNumber: 1
    InstrumentName: Harp2
    PlayerNumber: 0
    PlayerName: 
    NumGridPoints: 4
    Rank: 1
    TargetNoteCount: 5
    RecordedNoteCount: 5
    DudNoteCount: 2
    UnrecordedCount: 0
    TimingDifference: 5364
    DurationDifference: 2334
    LocationDifference: 1
    PersonalBest: 2227
    isNewPB: 0
