%YAML 1.1
%TAG !u! tag:unity3d.com,2011:
--- !u!114 &11400000
MonoBehaviour:
  m_ObjectHideFlags: 0
  m_CorrespondingSourceObject: {fileID: 0}
  m_PrefabInstance: {fileID: 0}
  m_PrefabAsset: {fileID: 0}
  m_GameObject: {fileID: 0}
  m_Enabled: 1
  m_EditorHideFlags: 0
  m_Script: {fileID: 11500000, guid: 1df334dd8580f408384d86b1b7231739, type: 3}
  m_Name: Coffee
  m_EditorClassIdentifier: 
  MemeText: Coffee
  MemeImage: {fileID: 21300000, guid: a5cdaaa13fd004a02a367a38549bc83a, type: 3}
  MemeColour: {r: 0.9716981, g: 0.5861424, b: 0.01375042, a: 1}
  LikeHealth:
  - 2
  - 5
  - 10
  - 0
  DislikeHealth:
  - 0
  - -5
  - 0
  - -5
  ShareHealth:
  - 10
  - 10
  - -10
  - 0
  MissHealth:
  - 5
  - 10
  - 5
  - -2
  LikeAgeIncrement: 1
  DislikeAgeIncrement: -5
  ShareAgeIncrement: 10
  MissAgeIncrement: 5
  LikeLandHealthIncrement: 5
  DislikeLandHealthIncrement: 0
  ShareLandHealthIncrement: -5
  MissLandHealthIncrement: 0
  AgeGroups:
  - {fileID: 11400000, guid: 0c409ea4e64e84e1a91b916b217db100, type: 2}
  - {fileID: 11400000, guid: ef1b392203d764910b551b7644546e5e, type: 2}
  - {fileID: 11400000, guid: bd8a50fbdb1b2409a909521aba00b50b, type: 2}
  RealmNames: []
  LayerNames: []
  ArriveAudio: {fileID: 8300000, guid: 53909aa9c7d0d475e80a9dd3a11f1a52, type: 3}
  DepartAudio: {fileID: 8300000, guid: ced887097e240475faf6c0024a5251d2, type: 3}
  AnimateAudio: {fileID: 0}
  CancelledAudio: {fileID: 8300000, guid: a60266e86fa6741e79d9b365c31872c6, type: 3}
