%YAML 1.1
%TAG !u! tag:unity3d.com,2011:
--- !u!1 &7643116986469529684
GameObject:
  m_ObjectHideFlags: 0
  m_CorrespondingSourceObject: {fileID: 0}
  m_PrefabInstance: {fileID: 0}
  m_PrefabAsset: {fileID: 0}
  serializedVersion: 6
  m_Component:
  - component: {fileID: 7643116986469529690}
  - component: {fileID: 7643116986469529685}
  m_Layer: 0
  m_Name: ScoreKeeper
  m_TagString: Untagged
  m_Icon: {fileID: 0}
  m_NavMeshLayer: 0
  m_StaticEditorFlags: 0
  m_IsActive: 1
--- !u!4 &7643116986469529690
Transform:
  m_ObjectHideFlags: 0
  m_CorrespondingSourceObject: {fileID: 0}
  m_PrefabInstance: {fileID: 0}
  m_PrefabAsset: {fileID: 0}
  m_GameObject: {fileID: 7643116986469529684}
  m_LocalRotation: {x: 0, y: 0, z: 0, w: 1}
  m_LocalPosition: {x: 0, y: 0, z: 0}
  m_LocalScale: {x: 1, y: 1, z: 1}
  m_Children: []
  m_Father: {fileID: 0}
  m_RootOrder: 0
  m_LocalEulerAnglesHint: {x: 0, y: 0, z: 0}
--- !u!114 &7643116986469529685
MonoBehaviour:
  m_ObjectHideFlags: 0
  m_CorrespondingSourceObject: {fileID: 0}
  m_PrefabInstance: {fileID: 0}
  m_PrefabAsset: {fileID: 0}
  m_GameObject: {fileID: 7643116986469529684}
  m_Enabled: 1
  m_EditorHideFlags: 0
  m_Script: {fileID: 11500000, guid: 89437ab083a35445ca25c6a45132d5c8, type: 3}
  m_Name: 
  m_EditorClassIdentifier: 
  SongScores:
  - {fileID: 11400000, guid: 6705a774f989c47aeb4760358d3f8ef1, type: 2}
  - {fileID: 11400000, guid: 542fba15452a6488186636dc2d85e894, type: 2}
  - {fileID: 11400000, guid: 9832b8a3e9c4140e4bdacdc1314783ca, type: 2}
  - {fileID: 11400000, guid: e54ec1d6f10c841c5af91a578b99d9b7, type: 2}
  - {fileID: 11400000, guid: 524e10f5b615e4acf90712baa4c762e6, type: 2}
  - {fileID: 11400000, guid: 7d6f66be603534ccda00c1ec28f8f3ba, type: 2}
  - {fileID: 11400000, guid: d3fd87f0d2ce347fc8e687c4dc919cdc, type: 2}
  - {fileID: 11400000, guid: 9dcc8ced0733a400194a3e374cffad89, type: 2}
